%YAML 1.1
%TAG !u! tag:unity3d.com,2011:
--- !u!74 &7400000
AnimationClip:
  m_ObjectHideFlags: 0
  m_PrefabParentObject: {fileID: 0}
  m_PrefabInternal: {fileID: 0}
  m_Name: walk
  serializedVersion: 6
  m_Legacy: 0
  m_Compressed: 0
  m_UseHighQualityCurve: 1
  m_RotationCurves: []
  m_CompressedRotationCurves: []
  m_EulerCurves: []
  m_PositionCurves: []
  m_ScaleCurves: []
  m_FloatCurves: []
  m_PPtrCurves:
  - curve:
    - time: 0
      value: {fileID: 21300000, guid: b0ce659fb8895ed41b58bc3e29561186, type: 3}
    - time: 0.125
      value: {fileID: 21300000, guid: f7e20b59090b8e94ebc83ddf89ed9296, type: 3}
    - time: 0.25
      value: {fileID: 21300000, guid: 367d5b84b46d2a444b23935af3c2bf92, type: 3}
    - time: 0.375
      value: {fileID: 21300000, guid: e62adad9c9f3ea949ad9e4ba3ed9e13c, type: 3}
    - time: 0.5
      value: {fileID: 21300000, guid: 974ba1a40ac2ee34c8faf9ca156166c9, type: 3}
    - time: 0.625
      value: {fileID: 21300000, guid: 0d167fec54eb77b49a106e15bc602389, type: 3}
    - time: 0.75
      value: {fileID: 21300000, guid: 0558e469b2012604988cdea737b12d35, type: 3}
    - time: 0.875
      value: {fileID: 21300000, guid: 81e55422f0e84bd49911dbdd426aada7, type: 3}
    attribute: m_Sprite
    path: 
    classID: 212
    script: {fileID: 0}
  m_SampleRate: 8
  m_WrapMode: 0
  m_Bounds:
    m_Center: {x: 0, y: 0, z: 0}
    m_Extent: {x: 0, y: 0, z: 0}
  m_ClipBindingConstant:
    genericBindings:
    - serializedVersion: 2
      path: 0
      attribute: 0
      script: {fileID: 0}
      typeID: 212
      customType: 23
      isPPtrCurve: 1
    pptrCurveMapping:
    - {fileID: 21300000, guid: b0ce659fb8895ed41b58bc3e29561186, type: 3}
    - {fileID: 21300000, guid: f7e20b59090b8e94ebc83ddf89ed9296, type: 3}
    - {fileID: 21300000, guid: 367d5b84b46d2a444b23935af3c2bf92, type: 3}
    - {fileID: 21300000, guid: e62adad9c9f3ea949ad9e4ba3ed9e13c, type: 3}
    - {fileID: 21300000, guid: 974ba1a40ac2ee34c8faf9ca156166c9, type: 3}
    - {fileID: 21300000, guid: 0d167fec54eb77b49a106e15bc602389, type: 3}
    - {fileID: 21300000, guid: 0558e469b2012604988cdea737b12d35, type: 3}
    - {fileID: 21300000, guid: 81e55422f0e84bd49911dbdd426aada7, type: 3}
  m_AnimationClipSettings:
    serializedVersion: 2
    m_AdditiveReferencePoseClip: {fileID: 0}
    m_AdditiveReferencePoseTime: 0
    m_StartTime: 0
    m_StopTime: 1
    m_OrientationOffsetY: 0
    m_Level: 0
    m_CycleOffset: 0
    m_HasAdditiveReferencePose: 0
    m_LoopTime: 1
    m_LoopBlend: 0
    m_LoopBlendOrientation: 0
    m_LoopBlendPositionY: 0
    m_LoopBlendPositionXZ: 0
    m_KeepOriginalOrientation: 0
    m_KeepOriginalPositionY: 1
    m_KeepOriginalPositionXZ: 0
    m_HeightFromFeet: 0
    m_Mirror: 0
  m_EditorCurves: []
  m_EulerEditorCurves: []
  m_HasGenericRootTransform: 0
  m_HasMotionFloatCurves: 0
  m_GenerateMotionCurves: 0
  m_Events: []
